Habitat,Location,Team,Cardinals,Number of peacocks detected (happy april fools)
Edge,A,Flora/Rachel,3,
Forest,B,Flora/Rachel,1,
Forest,C,Flora/Rachel,1,
Forest,A,Bela/Maggie,2,5
Forest,B,Bela/Maggie,0,8
Edge,C,Bela/Maggie,1,9
Forest,A,Josh/Lawton/Kayla,0,
Edge,B,Josh/Lawton/Kayla,1,
Edge,C,Josh/Lawton/Kayla,2,
Forest,A,KT/Ben/Kevin,1,9
Forest,B,KT/Ben/Kevin,0,69
Forest,C,KT/Ben/Kevin,3,4
Edge,A,Gabby/Emma,2,0
Edge,B,Gabby/Emma,1,0
Edge,C,Gabby/Emma,1,0
Edge,A,Sydnie/Weixin,2,5
Edge,B,Sydnie/Weixin,4,420
Forest,C,Sydnie/Weixin,0,13